{
  "A GTK+3-based picture browser and background setter.": "A GTK+3-based picture browser and background setter.",
  "Also known as urxvt, it's a lightweight terminal emulator fully customizable.": "Also known as urxvt, it's a lightweight terminal emulator fully customizable.",
  "CLI application to control the NetworkManager configuration. It gives you the power of the nm-applet, but in the terminal.": "CLI application to control the NetworkManager configuration. It gives you the power of the nm-applet, but in the terminal.",
  "Configuration": "Configuration",
  "Download Now": "Download Now",
  "Dynamic menu for X11": "Dynamic menu for X11",
  "Explore the World Wide Web with Firefox, the full featured web browser.": "Explore the World Wide Web with Firefox, the full featured web browser.",
  "Fedora i3 Image": "Fedora i3 Image",
  "Fedora i3 Spin": "Fedora i3 Spin",
  "Firefox": "Firefox",
  "Going Online": "Going Online",
  "Highly-configurable and lightweight notification daemon": "Highly-configurable and lightweight notification daemon",
  "Interactive process viewer": "Interactive process viewer",
  "Just a click and you're connected to your wireless LAN router, or online via many supported 3G mobile broadband cards.": "Just a click and you're connected to your wireless LAN router, or online via many supported 3G mobile broadband cards.",
  "NetworkManager Applet": "NetworkManager Applet",
  "Screenshot of Fedora i3 desktop": "Screenshot of Fedora i3 desktop",
  "Simple screen locker": "Simple screen locker",
  "Simple text editor for the Xfce desktop environment": "Simple text editor for the Xfce desktop environment",
  "Small program for generating a status bar for i3bar, dzen2, xmobar or similar programs": "Small program for generating a status bar for i3bar, dzen2, xmobar or similar programs",
  "The Fedora i3 Spin provides the popular i3 tiling window manager. It makes i3 accessible and appealing to both novices and advanced users who prefer not to use a mouse, touchpad, or other pointing device to interact with their environment. Featuring lightweight applications for web browsing, text editing, and media playback, the Fedora i3 Spin offers a complete experience with a minimalist user interface.": "The Fedora i3 Spin provides the popular i3 tiling window manager. It makes i3 accessible and appealing to both novices and advanced users who prefer not to use a mouse, touchpad, or other pointing device to interact with their environment. Featuring lightweight applications for web browsing, text editing, and media playback, the Fedora i3 Spin offers a complete experience with a minimalist user interface.",
  "Thunar": "Thunar",
  "Utilities": "Utilities",
  "We're so glad you've decided to give Fedora i3 Spin a try. We know you'll love it.": "We're so glad you've decided to give Fedora i3 Spin a try. We know you'll love it.",
  "azote": "azote",
  "brightlight": "brightlight",
  "brightlight gets and sets the screen back-light brightness on Linux systems using the kernel sysfs interface.": "brightlight gets and sets the screen back-light brightness on Linux systems using the kernel sysfs interface.",
  "dmenu": "dmenu",
  "dunst": "dunst",
  "file manager for Linux and other Unix-like systems": "file manager for Linux and other Unix-like systems",
  "htop": "htop",
  "i3lock": "i3lock",
  "i3status": "i3status",
  "mousepad": "mousepad",
  "nmcli": "nmcli",
  "rxvt-unicode": "rxvt-unicode"
}