{
  "A modern media player, using GTK+3 and the GStreamer plugin framework.": "A modern media player, using GTK+3 and the GStreamer plugin framework.",
  "A quick and easy to use image viewer.": "A quick and easy to use image viewer.",
  "Claws Mail is an easy to configure and full featured email application for the Xfce Desktop.": "Claws Mail is an easy to configure and full featured email application for the Xfce Desktop.",
  "Download Now": "Download Now",
  "Fedora Xfce Image": "Fedora Xfce Image",
  "Gnumeric is a lightweight application to create lightning fast spreadsheets.": "Gnumeric is a lightweight application to create lightning fast spreadsheets.",
  "Going Online": "Going Online",
  "Just a click and you're connected to your wireless LAN router, or online via many supported 3G mobile broadband cards.": "Just a click and you're connected to your wireless LAN router, or online via many supported 3G mobile broadband cards.",
  "Manage and play your music with ease.": "Manage and play your music with ease.",
  "Multimedia": "Multimedia",
  "No need to know cryptic commands and config files. Click the options you like to change and choose the settings that make you happy.": "No need to know cryptic commands and config files. Click the options you like to change and choose the settings that make you happy.",
  "Office & Productivity Suite": "Office & Productivity Suite",
  "Quick and full featured word processing made easy.": "Quick and full featured word processing made easy.",
  "Screenshot of Fedora Xfce desktop": "Screenshot of Fedora Xfce desktop",
  "System Settings": "System Settings",
  "The Fedora Xfce spin showcases the Xfce desktop, which aims to be fast and lightweight, while still being visually appealing and user friendly.\nFedora Xfce is a full-fledged desktop using the freedesktop.org standards.": "The Fedora Xfce spin showcases the Xfce desktop, which aims to be fast and lightweight, while still being visually appealing and user friendly.\nFedora Xfce is a full-fledged desktop using the freedesktop.org standards.",
  "The popular and free web browser backed by Mozilla, a non-profit dedicated to internet health and privacy.": "The popular and free web browser backed by Mozilla, a non-profit dedicated to internet health and privacy.",
  "Universal messaging client. Communicate with the world via IRC, AIM, MSN, Yahoo and other instant messaging systems.": "Universal messaging client. Communicate with the world via IRC, AIM, MSN, Yahoo and other instant messaging systems.",
  "Upstream Documentation": "Upstream Documentation",
  "Utilities & Configuration": "Utilities & Configuration",
  "We're so glad you've decided to give Fedora Xfce a try. We know you'll love it.": "We're so glad you've decided to give Fedora Xfce a try. We know you'll love it."
}
